<?xml version="1.0" encoding="UTF-8" standalone="no"?>
<!-- Created with Inkscape (http://www.inkscape.org/) -->

<svg
   xmlns:dc="http://purl.org/dc/elements/1.1/"
   xmlns:cc="http://creativecommons.org/ns#"
   xmlns:rdf="http://www.w3.org/1999/02/22-rdf-syntax-ns#"
   xmlns:svg="http://www.w3.org/2000/svg"
   xmlns="http://www.w3.org/2000/svg"
   xmlns:sodipodi="http://sodipodi.sourceforge.net/DTD/sodipodi-0.dtd"
   xmlns:inkscape="http://www.inkscape.org/namespaces/inkscape"
   version="1.1"
   id="svg2"
   width="154"
   height="60"
   viewBox="0 0 154 60"
   sodipodi:docname="amtega.svg"
   inkscape:version="0.92.3 (2405546, 2018-03-11)">
  <metadata
     id="metadata8">
    <rdf:RDF>
      <cc:Work
         rdf:about="">
        <dc:format>image/svg+xml</dc:format>
        <dc:type
           rdf:resource="http://purl.org/dc/dcmitype/StillImage" />
        <dc:title></dc:title>
      </cc:Work>
    </rdf:RDF>
  </metadata>
  <defs
     id="defs6" />
  <sodipodi:namedview
     pagecolor="#ffffff"
     bordercolor="#666666"
     borderopacity="1"
     objecttolerance="10"
     gridtolerance="10"
     guidetolerance="10"
     inkscape:pageopacity="0"
     inkscape:pageshadow="2"
     inkscape:window-width="1321"
     inkscape:window-height="713"
     id="namedview4"
     showgrid="false"
     inkscape:zoom="2.7792208"
     inkscape:cx="60.30628"
     inkscape:cy="8.251971"
     inkscape:window-x="45"
     inkscape:window-y="27"
     inkscape:window-maximized="1"
     inkscape:current-layer="svg2" />
  <g
     id="g12"
     transform="matrix(0.18109232,0,0,-0.18109232,0,60)">
    <path
       d="m 14.9297,142.441 h -0.0781 l -3.0508,-9.035 h 6.1367 z M 9.78516,127.766 7.81641,122.82 H 0 l 10.9063,28.383 h 8.0468 L 29.6328,122.82 h -7.8515 l -1.8516,4.946 H 9.78516"
       style="fill:#181817;fill-opacity:1;fill-rule:nonzero;stroke:none"
       id="path14"
       inkscape:connector-curvature="0" />
    <path
       d="m 30.6914,142.141 h 8.6914 l 3.4688,-3.996 3.4609,3.996 h 8.8438 l -7.9844,-8.852 9.6289,-10.469 h -8.9883 l -4.9609,5.735 -4.9727,-5.735 h -8.9961 l 9.6328,10.469 -7.8242,8.852"
       style="fill:#181817;fill-opacity:1;fill-rule:nonzero;stroke:none"
       id="path16"
       inkscape:connector-curvature="0" />
    <path
       d="m 71.9023,135.293 c -0.3437,1.836 -2.039,3.047 -3.871,3.047 -1.9961,0 -3.6563,-1.043 -4.0665,-3.047 z m 6.3555,-3.957 H 63.8555 c 0,-2.781 1.4609,-4.285 4.2773,-4.285 1.4649,0 2.5313,0.488 3.2695,1.777 h 6.586 c -0.5274,-2.258 -1.8672,-3.914 -3.6524,-5.008 -1.7695,-1.086 -3.9375,-1.625 -6.1679,-1.625 -6.3867,0 -11.1602,3.606 -11.1602,10.258 0,6.445 4.3867,10.32 10.6758,10.32 6.6992,0 10.5742,-4.14 10.5742,-10.71 v -0.727"
       style="fill:#181817;fill-opacity:1;fill-rule:nonzero;stroke:none"
       id="path18"
       inkscape:connector-curvature="0" />
    <path
       d="m 88.1484,139.648 h 0.0821 c 1.5781,2.336 3.5039,3.125 6.1797,3.125 5.1875,0 7.2498,-3.261 7.2498,-8.015 v -11.906 h -6.8553 v 9.394 c 0,1.836 0.293,5.078 -3.0703,5.078 -2.7813,0 -3.586,-2.07 -3.586,-4.492 v -9.98 h -6.8359 v 19.289 h 6.8359 v -2.493"
       style="fill:#181817;fill-opacity:1;fill-rule:nonzero;stroke:none"
       id="path20"
       inkscape:connector-curvature="0" />
    <path
       d="m 120.004,135.859 c -1.016,0.75 -2.203,1.36 -3.516,1.36 -2.64,0 -4.695,-2.043 -4.695,-4.711 0,-2.781 1.977,-4.742 4.809,-4.742 1.199,0 2.519,0.484 3.402,1.328 v -5.793 c -1.488,-0.754 -3.149,-1.113 -4.809,-1.113 -5.703,0 -10.472,4.257 -10.472,10.085 0,6.223 4.73,10.5 10.785,10.5 1.57,0 3.148,-0.371 4.496,-1.125 v -5.789"
       style="fill:#181817;fill-opacity:1;fill-rule:nonzero;stroke:none"
       id="path22"
       inkscape:connector-curvature="0" />
    <path
       d="m 131.051,122.844 h -6.844 v 19.297 h 6.844 z m 0.402,26.707 c 0,-2.098 -1.711,-3.84 -3.82,-3.84 -2.117,0 -3.844,1.742 -3.844,3.84 0,2.109 1.727,3.828 3.844,3.828 2.109,0 3.82,-1.719 3.82,-3.828"
       style="fill:#181817;fill-opacity:1;fill-rule:nonzero;stroke:none"
       id="path24"
       inkscape:connector-curvature="0" />
    <path
       d="m 141.172,132.453 c 0,-2.433 1.621,-4.308 4.391,-4.308 2.796,0 4.402,1.875 4.402,4.308 0,2.383 -1.606,4.383 -4.402,4.383 -2.77,0 -4.391,-2 -4.391,-4.383 m 15.43,-9.609 h -6.86 v 2.136 h -0.074 c -1.195,-1.925 -3.566,-2.792 -5.82,-2.792 -5.735,0 -9.746,4.785 -9.746,10.32 0,5.539 3.949,10.265 9.656,10.265 2.219,0 4.562,-0.828 5.984,-2.507 v 1.875 h 6.86 v -19.297"
       style="fill:#181817;fill-opacity:1;fill-rule:nonzero;stroke:none"
       id="path26"
       inkscape:connector-curvature="0" />
    <path
       d="m 180.301,132.469 c 0,-2.461 1.621,-4.336 4.402,-4.336 2.781,0 4.399,1.875 4.399,4.336 0,2.383 -1.618,4.367 -4.399,4.367 -2.781,0 -4.402,-1.984 -4.402,-4.367 m 0.215,7.492 h 0.074 c 1.25,1.922 3.598,2.812 5.832,2.812 5.781,0 9.758,-4.812 9.758,-10.343 0,-5.563 -3.957,-10.211 -9.676,-10.211 -2.211,0 -4.512,0.769 -5.988,2.469 v -11.485 h -6.86 v 28.938 h 6.86 v -2.18"
       style="fill:#181817;fill-opacity:1;fill-rule:nonzero;stroke:none"
       id="path28"
       inkscape:connector-curvature="0" />
    <path
       d="m 205.16,132.453 c 0,-2.433 1.641,-4.308 4.406,-4.308 2.786,0 4.418,1.875 4.418,4.308 0,2.383 -1.632,4.383 -4.418,4.383 -2.765,0 -4.406,-2 -4.406,-4.383 m 15.43,-9.609 h -6.844 v 2.136 h -0.09 c -1.195,-1.925 -3.558,-2.792 -5.82,-2.792 -5.719,0 -9.731,4.785 -9.731,10.32 0,5.539 3.934,10.265 9.657,10.265 2.222,0 4.562,-0.828 5.984,-2.507 v 1.875 h 6.844 v -19.297"
       style="fill:#181817;fill-opacity:1;fill-rule:nonzero;stroke:none"
       id="path30"
       inkscape:connector-curvature="0" />
    <path
       d="m 231.922,138.977 h 0.074 c 1.328,2.371 3.567,3.414 6.242,3.414 h 1.328 v -6.571 c -0.953,0.528 -1.851,0.633 -2.902,0.633 -3.793,0 -4.742,-2.515 -4.742,-5.82 v -7.813 h -6.848 v 19.321 h 6.848 v -3.164"
       style="fill:#181817;fill-opacity:1;fill-rule:nonzero;stroke:none"
       id="path32"
       inkscape:connector-curvature="0" />
    <path
       d="m 247.723,132.453 c 0,-2.433 1.613,-4.308 4.406,-4.308 2.769,0 4.402,1.875 4.402,4.308 0,2.383 -1.633,4.383 -4.402,4.383 -2.793,0 -4.406,-2 -4.406,-4.383 m 15.441,-9.609 h -6.855 v 2.136 h -0.082 c -1.2,-1.925 -3.571,-2.792 -5.829,-2.792 -5.71,0 -9.734,4.785 -9.734,10.32 0,5.539 3.953,10.265 9.652,10.265 2.223,0 4.567,-0.828 5.993,-2.507 v 1.875 h 6.855 v -19.297"
       style="fill:#181817;fill-opacity:1;fill-rule:nonzero;stroke:none"
       id="path34"
       inkscape:connector-curvature="0" />
    <path
       d="m 286.137,132.453 c 0,-2.433 1.613,-4.308 4.414,-4.308 2.769,0 4.39,1.875 4.39,4.308 0,2.383 -1.621,4.383 -4.39,4.383 -2.801,0 -4.414,-2 -4.414,-4.383 m 15.422,-9.609 h -6.836 v 2.136 h -0.075 c -1.21,-1.925 -3.566,-2.792 -5.835,-2.792 -5.723,0 -9.735,4.785 -9.735,10.32 0,5.539 3.938,10.265 9.66,10.265 2.219,0 4.563,-0.828 5.985,-2.507 v 1.875 h 6.836 v -19.297"
       style="fill:#181817;fill-opacity:1;fill-rule:nonzero;stroke:none"
       id="path36"
       inkscape:connector-curvature="0" />
    <path
       d="m 5.68359,110.438 h 7.25391 l 5.7617,-15.1567 6.086,15.1567 h 7.3437 L 36.4023,82.0625 H 29.043 L 26.9766,98.3984 H 26.9023 L 20.0742,82.0625 H 17.1523 L 10.6445,98.3984 H 10.5742 L 8.20313,82.0625 H 0.867188 L 5.68359,110.438"
       style="fill:#181817;fill-opacity:1;fill-rule:nonzero;stroke:none"
       id="path38"
       inkscape:connector-curvature="0" />
    <path
       d="m 45.1211,91.7109 c 0,-2.4336 1.6133,-4.3359 4.3867,-4.3359 2.7969,0 4.3945,1.9023 4.3945,4.3359 0,2.3829 -1.5976,4.3516 -4.3945,4.3516 -2.7734,0 -4.3867,-1.9687 -4.3867,-4.3516 m 16.0156,0 c 0,-6.5546 -5.4258,-10.2851 -11.6289,-10.2851 -6.1601,0 -11.6289,3.6914 -11.6289,10.2851 0,6.5782 5.4258,10.3011 11.6289,10.3011 6.2031,0 11.6289,-3.7229 11.6289,-10.3011"
       style="fill:#181817;fill-opacity:1;fill-rule:nonzero;stroke:none"
       id="path40"
       inkscape:connector-curvature="0" />
    <path
       d="m 70.0742,91.7109 c 0,-2.4336 1.6328,-4.3359 4.418,-4.3359 2.7812,0 4.4023,1.9023 4.4023,4.3359 0,2.3594 -1.6211,4.3633 -4.4023,4.3633 -2.7852,0 -4.418,-2.0039 -4.418,-4.3633 m 8.5977,-7.4921 h -0.0821 c -1.1992,-1.9219 -3.5625,-2.793 -5.8398,-2.793 -5.6992,0 -9.7187,4.793 -9.7187,10.3242 0,5.5234 3.9414,10.262 9.6718,10.262 2.2149,0 4.5508,-0.821 5.9688,-2.5198 v 13.8088 h 6.8437 V 82.0781 h -6.8437 v 2.1407"
       style="fill:#181817;fill-opacity:1;fill-rule:nonzero;stroke:none"
       id="path42"
       inkscape:connector-curvature="0" />
    <path
       d="m 103.203,94.5234 c -0.332,1.8438 -2.031,3.0547 -3.8827,3.0547 -2.0117,0 -3.6367,-1.0547 -4.0586,-3.0547 z m 6.356,-3.9453 H 95.1406 c 0,-2.7851 1.4883,-4.289 4.293,-4.289 1.4724,0 2.5274,0.4882 3.2814,1.7578 h 6.578 c -0.547,-2.2344 -1.863,-3.8985 -3.648,-4.9922 -1.774,-1.0938 -3.938,-1.6289 -6.1684,-1.6289 -6.3946,0 -11.1719,3.6211 -11.1719,10.293 0,6.414 4.3984,10.2932 10.6836,10.2932 6.6957,0 10.5707,-4.1292 10.5707,-10.7229 v -0.711"
       style="fill:#181817;fill-opacity:1;fill-rule:nonzero;stroke:none"
       id="path44"
       inkscape:connector-curvature="0" />
    <path
       d="m 119.453,98.2109 h 0.078 c 1.328,2.3751 3.574,3.4221 6.239,3.4221 h 1.328 v -6.5744 c -0.946,0.5352 -1.848,0.6367 -2.91,0.6367 -3.77,0 -4.735,-2.5234 -4.735,-5.832 v -7.8008 h -6.832 v 19.3125 h 6.832 v -3.1641"
       style="fill:#181817;fill-opacity:1;fill-rule:nonzero;stroke:none"
       id="path46"
       inkscape:connector-curvature="0" />
    <path
       d="m 136.414,98.8867 h 0.074 c 1.586,2.3323 3.512,3.1253 6.188,3.1253 5.183,0 7.242,-3.2698 7.242,-8.0081 V 82.0898 h -6.836 v 9.4024 c 0,1.8281 0.313,5.0703 -3.082,5.0703 -2.777,0 -3.586,-2.0703 -3.586,-4.4844 v -9.9883 h -6.836 v 19.2852 h 6.836 v -2.4883"
       style="fill:#181817;fill-opacity:1;fill-rule:nonzero;stroke:none"
       id="path48"
       inkscape:connector-curvature="0" />
    <path
       d="m 161.227,82.0781 h -6.844 v 19.2969 h 6.844 z m 0.414,26.7109 c 0,-2.117 -1.731,-3.836 -3.848,-3.836 -2.09,0 -3.824,1.719 -3.824,3.836 0,2.102 1.734,3.828 3.824,3.828 2.117,0 3.848,-1.726 3.848,-3.828"
       style="fill:#181817;fill-opacity:1;fill-rule:nonzero;stroke:none"
       id="path50"
       inkscape:connector-curvature="0" />
    <path
       d="m 183.27,87.7539 v -5.6914 h -19.571 l 9.074,13.6328 h -7.875 v 5.6797 h 19.29 l -9.047,-13.6211 h 8.129"
       style="fill:#181817;fill-opacity:1;fill-rule:nonzero;stroke:none"
       id="path52"
       inkscape:connector-curvature="0" />
    <path
       d="m 192.305,91.6875 c 0,-2.4297 1.609,-4.3242 4.402,-4.3242 2.77,0 4.395,1.8945 4.395,4.3242 0,2.3828 -1.625,4.3867 -4.395,4.3867 -2.793,0 -4.402,-2.0039 -4.402,-4.3867 m 15.418,-9.6094 h -6.856 v 2.1407 h -0.066 c -1.203,-1.9219 -3.578,-2.7813 -5.821,-2.7813 -5.726,0 -9.738,4.7813 -9.738,10.3125 0,5.5234 3.938,10.262 9.641,10.262 2.215,0 4.578,-0.832 5.984,-2.5198 v 1.8828 h 6.856 V 82.0781"
       style="fill:#181817;fill-opacity:1;fill-rule:nonzero;stroke:none"
       id="path54"
       inkscape:connector-curvature="0" />
    <path
       d="m 226.133,95.0977 c -1.012,0.7539 -2.219,1.3554 -3.528,1.3554 -2.656,0 -4.718,-2.0312 -4.718,-4.7031 0,-2.7852 1.984,-4.75 4.816,-4.75 1.211,0 2.52,0.4922 3.43,1.3281 v -5.789 c -1.516,-0.75 -3.176,-1.1133 -4.824,-1.1133 -5.719,0 -10.489,4.2578 -10.489,10.0898 0,6.2188 4.731,10.4964 10.801,10.4964 1.57,0 3.145,-0.371 4.512,-1.121 v -5.7933"
       style="fill:#181817;fill-opacity:1;fill-rule:nonzero;stroke:none"
       id="path56"
       inkscape:connector-curvature="0" />
    <path
       d="m 237.148,82.0781 h -6.835 v 19.2969 h 6.835 z m 0.407,26.7109 c 0,-2.117 -1.715,-3.836 -3.817,-3.836 -2.117,0 -3.847,1.719 -3.847,3.836 0,2.102 1.73,3.828 3.847,3.828 2.102,0 3.817,-1.726 3.817,-3.828"
       style="fill:#181817;fill-opacity:1;fill-rule:nonzero;stroke:none"
       id="path58"
       inkscape:connector-curvature="0" />
    <path
       d="m 251.035,104.227 -3.062,2.226 5.328,6.477 4.164,-3.016 z m -3.644,-12.5161 c 0,-2.4336 1.632,-4.3359 4.41,-4.3359 2.777,0 4.39,1.9023 4.39,4.3359 0,2.3829 -1.613,4.3516 -4.39,4.3516 -2.778,0 -4.41,-1.9687 -4.41,-4.3516 m 16.023,0 c 0,-6.5546 -5.422,-10.2851 -11.613,-10.2851 -6.196,0 -11.645,3.6914 -11.645,10.2851 0,6.5782 5.426,10.3011 11.645,10.3011 6.191,0 11.613,-3.7229 11.613,-10.3011"
       style="fill:#181817;fill-opacity:1;fill-rule:nonzero;stroke:none"
       id="path60"
       inkscape:connector-curvature="0" />
    <path
       d="m 273.27,98.8867 h 0.078 c 1.582,2.3323 3.492,3.1253 6.16,3.1253 5.215,0 7.273,-3.2698 7.273,-8.0081 V 82.0898 h -6.863 v 9.4024 c 0,1.8281 0.324,5.0703 -3.078,5.0703 -2.781,0 -3.57,-2.0703 -3.57,-4.4844 v -9.9883 h -6.848 v 19.2852 h 6.848 v -2.4883"
       style="fill:#181817;fill-opacity:1;fill-rule:nonzero;stroke:none"
       id="path62"
       inkscape:connector-curvature="0" />
    <path
       d="m 315.488,82.0781 h -7.363 v 22.1209 h -6.117 v 6.239 h 19.594 v -6.239 h -6.114 V 82.0781"
       style="fill:#181817;fill-opacity:1;fill-rule:nonzero;stroke:none"
       id="path64"
       inkscape:connector-curvature="0" />
    <path
       d="m 334.723,94.5234 c -0.348,1.8438 -2.039,3.0547 -3.875,3.0547 -2,0 -3.645,-1.0547 -4.067,-3.0547 z m 6.34,-3.9453 h -14.399 c 0,-2.7851 1.461,-4.289 4.289,-4.289 1.477,0 2.524,0.4882 3.274,1.7578 h 6.578 c -0.524,-2.2344 -1.883,-3.8985 -3.637,-4.9922 -1.77,-1.0938 -3.949,-1.6289 -6.168,-1.6289 -6.414,0 -11.191,3.6211 -11.191,10.293 0,6.414 4.418,10.2932 10.699,10.2932 6.68,0 10.555,-4.1292 10.555,-10.7229 v -0.711"
       style="fill:#181817;fill-opacity:1;fill-rule:nonzero;stroke:none"
       id="path66"
       inkscape:connector-curvature="0" />
    <path
       d="m 358.051,95.0977 c -1.012,0.7539 -2.227,1.3554 -3.543,1.3554 -2.633,0 -4.703,-2.0312 -4.703,-4.7031 0,-2.7852 1.988,-4.75 4.812,-4.75 1.207,0 2.516,0.4922 3.434,1.3281 v -5.789 c -1.5,-0.75 -3.18,-1.1133 -4.813,-1.1133 -5.734,0 -10.508,4.2578 -10.508,10.0898 0,6.2188 4.75,10.4964 10.805,10.4964 1.586,0 3.145,-0.371 4.516,-1.121 v -5.7933"
       style="fill:#181817;fill-opacity:1;fill-rule:nonzero;stroke:none"
       id="path68"
       inkscape:connector-curvature="0" />
    <path
       d="m 369.059,98.8867 h 0.082 c 1.57,2.3323 3.496,3.1253 6.172,3.1253 5.179,0 7.253,-3.2698 7.253,-8.0081 V 82.0898 h -6.836 v 9.4024 c 0,1.8281 0.313,5.0703 -3.093,5.0703 -2.774,0 -3.578,-2.0703 -3.578,-4.4844 v -9.9883 h -6.836 v 19.2852 h 6.836 v -2.4883"
       style="fill:#181817;fill-opacity:1;fill-rule:nonzero;stroke:none"
       id="path70"
       inkscape:connector-curvature="0" />
    <path
       d="m 392.816,91.7109 c 0,-2.4336 1.618,-4.3359 4.407,-4.3359 2.777,0 4.398,1.9023 4.398,4.3359 0,2.3829 -1.621,4.3516 -4.398,4.3516 -2.789,0 -4.407,-1.9687 -4.407,-4.3516 m 16.012,0 c 0,-6.5546 -5.402,-10.2851 -11.605,-10.2851 -6.18,0 -11.633,3.6914 -11.633,10.2851 0,6.5782 5.406,10.3011 11.633,10.3011 6.203,0 11.605,-3.7229 11.605,-10.3011"
       style="fill:#181817;fill-opacity:1;fill-rule:nonzero;stroke:none"
       id="path72"
       inkscape:connector-curvature="0" />
    <path
       d="m 411.863,82.0898 h 6.836 v 31.2232 h -6.836 V 82.0898"
       style="fill:#181817;fill-opacity:1;fill-rule:nonzero;stroke:none"
       id="path74"
       inkscape:connector-curvature="0" />
    <path
       d="m 432.586,104.227 -3.047,2.226 5.305,6.477 4.168,-3.016 z m -3.664,-12.5161 c 0,-2.4336 1.633,-4.3359 4.418,-4.3359 2.773,0 4.402,1.9023 4.402,4.3359 0,2.3829 -1.629,4.3516 -4.402,4.3516 -2.785,0 -4.418,-1.9687 -4.418,-4.3516 m 16.043,0 c 0,-6.5546 -5.41,-10.2851 -11.625,-10.2851 -6.188,0 -11.633,3.6914 -11.633,10.2851 0,6.5782 5.422,10.3011 11.633,10.3011 6.215,0 11.625,-3.7229 11.625,-10.3011"
       style="fill:#181817;fill-opacity:1;fill-rule:nonzero;stroke:none"
       id="path76"
       inkscape:connector-curvature="0" />
    <path
       d="m 446.957,101.375 h 8.691 l 3.477,-3.9922 3.438,3.9922 h 8.847 l -7.969,-8.8359 9.629,-10.4766 h -9.004 l -4.941,5.7305 -4.98,-5.7305 h -8.985 l 9.629,10.4766 -7.832,8.8359"
       style="fill:#181817;fill-opacity:1;fill-rule:nonzero;stroke:none"
       id="path78"
       inkscape:connector-curvature="0" />
    <path
       d="m 481.527,82.0781 h -6.855 v 19.2969 h 6.855 z m 0.411,26.7109 c 0,-2.117 -1.719,-3.836 -3.809,-3.836 -2.129,0 -3.848,1.719 -3.848,3.836 0,2.102 1.719,3.828 3.848,3.828 2.09,0 3.809,-1.726 3.809,-3.828"
       style="fill:#181817;fill-opacity:1;fill-rule:nonzero;stroke:none"
       id="path80"
       inkscape:connector-curvature="0" />
    <path
       d="m 499.887,95.0977 c -0.996,0.7539 -2.207,1.3554 -3.535,1.3554 -2.637,0 -4.707,-2.0312 -4.707,-4.7031 0,-2.7852 1.992,-4.75 4.824,-4.75 1.211,0 2.519,0.4922 3.418,1.3281 v -5.789 c -1.485,-0.75 -3.164,-1.1133 -4.805,-1.1133 -5.723,0 -10.508,4.2578 -10.508,10.0898 0,6.2188 4.746,10.4964 10.801,10.4964 1.582,0 3.145,-0.371 4.512,-1.121 v -5.7933"
       style="fill:#181817;fill-opacity:1;fill-rule:nonzero;stroke:none"
       id="path82"
       inkscape:connector-curvature="0" />
    <path
       d="m 509.75,91.6875 c 0,-2.4297 1.621,-4.3242 4.414,-4.3242 2.774,0 4.395,1.8945 4.395,4.3242 0,2.3828 -1.621,4.3867 -4.395,4.3867 -2.793,0 -4.414,-2.0039 -4.414,-4.3867 m 15.43,-9.6094 h -6.856 v 2.1407 h -0.078 c -1.191,-1.9219 -3.574,-2.7813 -5.82,-2.7813 -5.723,0 -9.727,4.7813 -9.727,10.3125 0,5.5234 3.926,10.262 9.668,10.262 2.188,0 4.531,-0.832 5.957,-2.5198 v 1.8828 h 6.856 V 82.0781"
       style="fill:#181817;fill-opacity:1;fill-rule:nonzero;stroke:none"
       id="path84"
       inkscape:connector-curvature="0" />
    <path
       d="m 69.1875,282.195 c -25.3398,0 -45.0664,-11.445 -55.4492,-32.242 -7.39064,-14.805 -7.61721,-29.23 -7.61721,-30.82 v -41.641 c 0,-7.484 6.10161,-13.578 13.60161,-13.578 7.5117,0 13.5976,6.094 13.5976,13.578 v 41.656 c 0,0.09 0.2031,9.555 4.7344,18.645 5.793,11.59 15.9687,17.238 31.1328,17.238 14.8828,0 24.9531,-5.414 30.7969,-16.547 4.9256,-9.351 5.0816,-19.324 5.0816,-19.351 v -41.641 c 0,-7.484 6.086,-13.578 13.59,-13.578 7.5,0 13.598,6.094 13.598,13.578 v 41.641 c 0,1.59 -0.215,16.015 -7.606,30.82 -10.394,20.797 -30.0894,32.242 -55.4605,32.242"
       style="fill:#47a0de;fill-opacity:1;fill-rule:nonzero;stroke:none"
       id="path86"
       inkscape:connector-curvature="0" />
    <path
       d="m 340.691,238.484 c 4.899,-9.351 5.09,-19.324 5.09,-19.351 v -41.641 c 0,-7.484 6.082,-13.578 13.574,-13.578 7.52,0 13.602,6.094 13.602,13.578 v 41.641 c 0,1.59 -0.215,16.015 -7.621,30.82 -10.371,20.797 -30.086,32.242 -55.426,32.242 -21.152,0 -38.332,-7.945 -49.504,-22.617 -11.14,14.672 -28.328,22.617 -49.449,22.617 -25.375,0 -45.062,-11.445 -55.465,-32.242 -7.41,-14.805 -7.613,-29.23 -7.613,-30.82 v -41.641 c 0,-7.484 6.09,-13.578 13.605,-13.578 7.485,0 13.582,6.094 13.582,13.578 v 41.656 c 0,0.09 0.207,9.555 4.739,18.645 5.777,11.59 15.976,17.238 31.152,17.238 14.848,0 24.938,-5.414 30.789,-16.547 4.918,-9.351 5.074,-19.324 5.074,-19.351 v -41.641 c 0,-7.484 6.098,-13.578 13.586,-13.578 7.532,0 13.606,6.094 13.606,13.578 v 3.321 0 38.335 c 0,0.09 0.176,9.555 4.734,18.645 5.805,11.59 15.977,17.238 31.164,17.238 14.863,0 24.934,-5.414 30.781,-16.547"
       style="fill:#47a0de;fill-opacity:1;fill-rule:nonzero;stroke:none"
       id="path88"
       inkscape:connector-curvature="0" />
    <path
       d="m 69.1875,232.547 c -9.2266,0 -16.7227,-7.488 -16.7227,-16.727 0,-9.226 7.4961,-16.718 16.7227,-16.718 9.2383,0 16.707,7.492 16.707,16.718 0,9.239 -7.4687,16.727 -16.707,16.727"
       style="fill:#47a0de;fill-opacity:1;fill-rule:nonzero;stroke:none"
       id="path90"
       inkscape:connector-curvature="0" />
    <path
       d="m 842.777,249.953 c -10.39,20.781 -30.097,32.242 -55.468,32.242 -25.332,0 -45.059,-11.461 -55.43,-32.242 -7.402,-14.816 -7.617,-29.23 -7.617,-30.805 v -41.64 c 0,-7.5 6.093,-13.594 13.574,-13.594 7.5,0 13.613,6.094 13.613,13.594 v 41.64 c 0,0.079 0.196,9.563 4.727,18.645 5.801,11.59 15.976,17.227 31.133,17.227 14.902,0 24.98,-5.403 30.8,-16.536 4.922,-9.351 5.098,-19.312 5.098,-19.336 v -41.64 c 0,-7.5 6.074,-13.594 13.574,-13.594 7.52,0 13.614,6.094 13.614,13.594 v 41.613 c 0,1.602 -0.215,16.016 -7.618,30.832"
       style="fill:#47a0de;fill-opacity:1;fill-rule:nonzero;stroke:none"
       id="path92"
       inkscape:connector-curvature="0" />
    <path
       d="m 787.309,232.547 c -9.219,0 -16.7,-7.488 -16.7,-16.727 0,-9.226 7.481,-16.718 16.7,-16.718 9.257,0 16.738,7.492 16.738,16.718 0,9.239 -7.481,16.727 -16.738,16.727"
       style="fill:#47a0de;fill-opacity:1;fill-rule:nonzero;stroke:none"
       id="path94"
       inkscape:connector-curvature="0" />
    <path
       d="m 390.23,265.293 h 2.622 v -72.59 l 0.281,-1.367 c 2.773,-13.203 13.457,-27.422 30.367,-27.422 h 20.566 c 7.5,0 13.594,6.094 13.594,13.578 0,7.516 -6.094,13.61 -13.594,13.61 H 423.5 c -1.289,0 -2.781,2.89 -3.461,4.882 v 69.309 h 25.551 c 7.519,0 13.574,6.105 13.574,13.594 0,7.5 -6.055,13.574 -13.574,13.574 h -25.551 v 12.91 c 0,7.5 -6.094,13.582 -13.594,13.582 -7.511,0 -13.593,-6.082 -13.593,-13.582 v -12.91 h -2.622 c -7.488,0 -13.585,-6.074 -13.585,-13.574 0,-7.489 6.097,-13.594 13.585,-13.594"
       style="fill:#47a0de;fill-opacity:1;fill-rule:nonzero;stroke:none"
       id="path96"
       inkscape:connector-curvature="0" />
    <path
       d="m 511,252.063 c 8.184,0 20.488,-2.93 26.563,-12.532 L 484.438,239.5 c 6.054,9.633 18.378,12.563 26.562,12.563 m -26.035,-78.868 c 14.18,-7.726 27.988,-9.101 29.531,-9.23 0.391,-0.02 0.781,-0.051 1.172,-0.051 6.992,0 12.949,5.324 13.555,12.406 0.644,7.489 -4.844,14.063 -12.325,14.727 -0.097,0 -10.136,1.023 -19.589,6.367 -6.739,3.797 -11.387,8.727 -13.985,14.93 h 85.039 v 13.586 c 0,16.277 -6.679,30.613 -18.75,40.359 -10.332,8.34 -24.062,12.961 -38.613,12.961 -14.57,0 -28.281,-4.621 -38.633,-12.961 -12.07,-9.746 -18.73,-24.082 -18.73,-40.359 0,-23.047 11.133,-41.77 31.328,-52.735"
       style="fill:#47a0de;fill-opacity:1;fill-rule:nonzero;stroke:none"
       id="path98"
       inkscape:connector-curvature="0" />
    <path
       d="m 678.773,230.391 c 0,-19.93 -12.851,-31.828 -34.453,-31.828 -22.187,0 -34.375,11.312 -34.375,31.828 0,19.656 13.848,32.343 35.235,32.343 21.347,0 33.593,-11.796 33.593,-32.343 m -32.421,54.433 c -38.028,0 -64.59,-23.476 -64.59,-57.09 0,-18.32 7.011,-32.812 19.785,-41.125 -9.199,-5.078 -14.844,-14.187 -14.844,-24.207 0,-7.89 3.555,-14.824 10.195,-19.589 3.301,-1.922 6.582,-3.536 9.883,-4.93 -13.613,-21.985 -28.164,-41.1838 -43.242,-57.0432 l -0.351,-0.3789 v -0.4296 c -7.598,-7.8047 -15.391,-14.7969 -23.204,-20.9219 -1.914,-1.5508 -3.75,-2.8789 -5.39,-4.1016 -0.196,-0.125 -0.371,-0.2812 -0.508,-0.4297 -7.031,-5.0937 -14.063,-9.5312 -21.211,-13.2031 -0.293,-0.2109 -0.664,-0.3789 -0.977,-0.5078 -0.214,-0.0859 -0.41,-0.1719 -0.625,-0.3008 C 510.238,40 509.242,39.5313 508.285,39.0234 490.648,30.5547 472.992,26.25 455.785,26.25 c -0.488,0 -1.015,0 -1.504,0 l -1.269,0.0977 c -47.328,0.332 -88.094,12.0429 -121.157,34.8164 l -2.05,1.414 V 28.4688 l 0.711,-0.375 C 364.09,10.1953 403.602,0.800781 447.855,0.136719 l 2.833,-0.0781252 C 451.801,0.0195313 452.953,0 454.145,0 c 59.14,0 120.156,43.0391 171.699,121.102 6.152,8.371 11.328,12.628 22.851,12.628 h 11.035 c 18.926,0 28.946,-7.363 28.946,-21.328 0,-0.457 0,-0.839 -0.078,-1.316 l -0.508,-3.391 2.617,2.188 c 15.352,12.832 23.359,19.93 23.77,21.219 l 0.097,0.421 -0.136,0.422 c -6.192,16.914 -23.067,26.239 -47.461,26.239 h -26.739 c -20.547,0 -23.359,4.804 -23.359,10.027 0,4.523 2.93,8.371 8.086,10.559 4.863,-0.84 12.07,-1.7 18.164,-1.7 39.531,0 64.082,21.086 64.082,55.071 0,10.875 -3.633,20.457 -10.059,26.89 h 22.325 v 23.242 h -50.293 c -8.223,1.829 -14.825,2.551 -22.832,2.551"
       style="fill:#47a0de;fill-opacity:1;fill-rule:nonzero;stroke:none"
       id="path100"
       inkscape:connector-curvature="0" />
  </g>
</svg>
