<?xml version="1.0" encoding="UTF-8" standalone="no"?>
<svg
   xmlns:dc="http://purl.org/dc/elements/1.1/"
   xmlns:cc="http://creativecommons.org/ns#"
   xmlns:rdf="http://www.w3.org/1999/02/22-rdf-syntax-ns#"
   xmlns:svg="http://www.w3.org/2000/svg"
   xmlns="http://www.w3.org/2000/svg"
   xmlns:sodipodi="http://sodipodi.sourceforge.net/DTD/sodipodi-0.dtd"
   xmlns:inkscape="http://www.inkscape.org/namespaces/inkscape"
   version="1.1"
   width="736.875"
   height="354.375"
   id="svg2999"
   xml:space="preserve"
   sodipodi:docname="odd_logo.svg"
   inkscape:version="0.92.3 (2405546, 2018-03-11)"><sodipodi:namedview
     pagecolor="#ffffff"
     bordercolor="#666666"
     borderopacity="1"
     objecttolerance="10"
     gridtolerance="10"
     guidetolerance="10"
     inkscape:pageopacity="0"
     inkscape:pageshadow="2"
     inkscape:window-width="640"
     inkscape:window-height="480"
     id="namedview20"
     showgrid="false"
     inkscape:zoom="0.58083121"
     inkscape:cx="338.30827"
     inkscape:cy="177.1875"
     inkscape:window-x="45"
     inkscape:window-y="27"
     inkscape:window-maximized="0"
     inkscape:current-layer="svg2999" /><title
     id="title3070">Open Data Day Logo</title><metadata
     id="metadata3005"><rdf:RDF><cc:Work
         rdf:about=""><dc:format>image/svg+xml</dc:format><dc:type
           rdf:resource="http://purl.org/dc/dcmitype/StillImage" /><dc:title>Open Data Day Logo</dc:title><dc:subject><rdf:Bag><rdf:li>Open Data Day Logo</rdf:li></rdf:Bag></dc:subject></cc:Work></rdf:RDF></metadata><defs
     id="defs3003"><clipPath
       id="clipPath3015"><path
         d="m 0,283.5 589.5,0 L 589.5,0 0,0 0,283.5 z"
         id="path3017" /></clipPath></defs><g
     transform="matrix(1.25,0,0,-1.25,0,354.375)"
     id="g3007"><path
       d="m 124.5,145.59795 323.807,0 0,-8 -323.807,0 0,8 z"
       id="path3009"
       style="fill:#999999;fill-opacity:1;fill-rule:nonzero;stroke:none" /><g
       transform="translate(127.1953,141.59795)"
       id="g3019"><path
         d="m 0,0 c 0.006,-7.96 -6.444,-14.415 -14.404,-14.418 -7.96,-0.003 -14.415,6.447 -14.418,14.407 l 0,0.011 c -0.003,7.959 6.444,14.414 14.404,14.418 C -6.458,14.42 -0.003,7.971 0,0.01 L 0,0 z"
         id="path3021"
         style="fill:#ff6200;fill-opacity:1;fill-rule:nonzero;stroke:none" /></g><g
       transform="translate(113.6465,207.56645)"
       id="g3023"><path
         d="m 0,0 c 36.439,0 65.953,-29.545 65.953,-65.984 0,-36.44 -29.514,-65.953 -65.953,-65.953 -36.438,0 -65.981,29.513 -65.981,65.953 C -65.984,-29.545 -36.44,0 0,0 m 0,21.776 c -48.462,0 -87.76,-39.298 -87.76,-87.76 0,-48.462 39.298,-87.729 87.76,-87.729 48.462,0 87.729,39.269 87.729,87.729 0,48.46 -39.267,87.76 -87.729,87.76"
         id="path3025"
         style="fill:#ff6200;fill-opacity:1;fill-rule:nonzero;stroke:none" /></g><path
       d="m 309.5479,141.59745 c 0.003,-7.959 -6.447,-14.414 -14.406,-14.417 -7.96,-0.003 -14.415,6.447 -14.418,14.407 l 0,0.01 c -0.003,7.961 6.447,14.416 14.407,14.418 7.959,0.004 14.414,-6.447 14.417,-14.406 l 0,-0.012 z"
       id="path3029"
       style="fill:#ffb900;fill-opacity:1;fill-rule:nonzero;stroke:none" /><g
       transform="translate(351.1973,141.79695)"
       id="g3031"><path
         d="m 0,0 -86.397,49.801 c -0.086,0.318 -0.201,-100 -0.201,-100 L 0,0 z M -107.598,86.801 43.002,0 l -150.6,-87.199 0,174 z"
         id="path3033"
         style="fill:#ffb900;fill-opacity:1;fill-rule:nonzero;stroke:none" /></g><g
       transform="translate(473.2432,141.59795)"
       id="g3035"><path
         d="m 0,0 c 0.003,-7.959 -6.444,-14.415 -14.404,-14.418 -7.96,-0.003 -14.415,6.447 -14.417,14.408 l 0,0.01 c -0.004,7.96 6.444,14.415 14.403,14.418 C -6.458,14.421 -0.003,7.971 0,0.011 L 0,0 z"
         id="path3037"
         style="fill:#0081ff;fill-opacity:1;fill-rule:nonzero;stroke:none" /></g><path
       d="m 512.6973,141.19745 -83.298,49.4 -0.5,-97.8 83.798,48.4 z m -105.897,88.301 c 0,0 151.2,-87.201 151.2,-87.602 0.105,0.406 -151.903,-88.199 -151.903,-88.199 l 0.703,175.801 z"
       id="path3041"
       style="fill:#0081ff;fill-opacity:1;fill-rule:nonzero;stroke:none" /></g></svg>